<?xml version="1.0" encoding="UTF-8" standalone="no"?>
<!-- Created with Inkscape (http://www.inkscape.org/) -->

<svg
   xmlns:dc="http://purl.org/dc/elements/1.1/"
   xmlns:cc="http://creativecommons.org/ns#"
   xmlns:rdf="http://www.w3.org/1999/02/22-rdf-syntax-ns#"
   xmlns:svg="http://www.w3.org/2000/svg"
   xmlns="http://www.w3.org/2000/svg"
   xmlns:xlink="http://www.w3.org/1999/xlink"
   version="1.1"
   width="336.72656"
   height="210.85939"
   viewBox="0 0 269.38125 168.68751"
   id="svg2">
  <metadata
     id="metadata933">
    <rdf:RDF>
      <cc:Work
         rdf:about="">
        <dc:format>image/svg+xml</dc:format>
        <dc:type
           rdf:resource="http://purl.org/dc/dcmitype/StillImage" />
        <dc:title></dc:title>
      </cc:Work>
    </rdf:RDF>
  </metadata>
  <defs
     id="defs4">
    <g
       id="g6">
      <symbol
         id="glyph0-0"
         style="overflow:visible">
        <path
           d=""
           id="path9"
           style="stroke:none" />
      </symbol>
      <symbol
         id="glyph0-1"
         style="overflow:visible">
        <path
           d=""
           id="path12"
           style="stroke:none" />
      </symbol>
      <symbol
         id="glyph0-2"
         style="overflow:visible">
        <path
           d="m 2.875,-5.1875 c 0,-0.171875 -0.0625,-0.25 -0.171875,-0.25 -0.125,0 -0.1875,0.078125 -0.1875,0.25 l 0,6.0625 c 0,0.15625 0.0625,0.234375 0.1875,0.234375 C 2.8125,1.109375 2.875,1.03125 2.875,0.875 z"
           id="path15"
           style="stroke:none" />
      </symbol>
      <symbol
         id="glyph0-3"
         style="overflow:visible">
        <path
           d="m 1.015625,-3.75 -0.671875,0 c -0.15625,0 -0.25,0.0625 -0.25,0.171875 0,0.125 0.09375,0.1875 0.25,0.1875 l 0.296875,0 0,3.015625 -0.296875,0 c -0.15625,0 -0.25,0.0625 -0.25,0.1875 C 0.09375,-0.0625 0.1875,0 0.328125,0 L 1.3125,0 c 0.15625,0 0.25,-0.0625 0.25,-0.1875 0,-0.125 -0.09375,-0.1875 -0.25,-0.1875 l -0.296875,0 0,-2.390625 c 0.328125,-0.515625 0.625,-0.75 0.9375,-0.75 0.3125,0 0.578125,0.328125 0.578125,0.671875 l 0,2.84375 0.671875,0 c 0.15625,0 0.25,-0.0625 0.25,-0.1875 0,-0.125 -0.09375,-0.1875 -0.25,-0.1875 l -0.3125,0 0,-2.390625 c 0.34375,-0.53125 0.625,-0.75 0.9375,-0.75 0.328125,0 0.59375,0.296875 0.59375,0.640625 l 0,2.875 0.671875,0 c 0.15625,0 0.25,-0.0625 0.25,-0.1875 0,-0.125 -0.09375,-0.1875 -0.25,-0.1875 l -0.3125,0 0,-2.53125 c 0,-0.53125 -0.421875,-0.96875 -0.9375,-0.96875 -0.375,0 -0.671875,0.1875 -1.015625,0.640625 C 2.625,-3.671875 2.34375,-3.875 1.953125,-3.875 c -0.375,0 -0.640625,0.15625 -0.9375,0.59375 z"
           id="path18"
           style="stroke:none" />
      </symbol>
      <symbol
         id="glyph0-4"
         style="overflow:visible">
        <path
           d="M 3.765625,0 4.625,0 c 0.15625,0 0.25,-0.0625 0.25,-0.1875 0,-0.125 -0.09375,-0.1875 -0.25,-0.1875 l -0.484375,0 0,-2.390625 C 4.140625,-3.40625 3.53125,-3.875 2.6875,-3.875 c -0.328125,0 -0.921875,0.109375 -1.40625,0.28125 -0.109375,0.03125 -0.15625,0.109375 -0.15625,0.1875 0,0.109375 0.078125,0.1875 0.171875,0.1875 0.015625,0 0.046875,-0.015625 0.09375,-0.015625 0.703125,-0.21875 0.953125,-0.28125 1.265625,-0.28125 0.671875,0 1.109375,0.296875 1.109375,0.75 l 0,0.625 c -0.53125,-0.140625 -0.796875,-0.1875 -1.21875,-0.1875 -1.125,0 -1.90625,0.53125 -1.90625,1.3125 0,0.6875 0.578125,1.15625 1.40625,1.15625 0.640625,0 1.171875,-0.234375 1.71875,-0.75 z m 0,-1.015625 C 3.171875,-0.4375 2.6875,-0.21875 2.046875,-0.21875 c -0.625,0 -1.03125,-0.3125 -1.03125,-0.78125 0,-0.5625 0.65625,-0.953125 1.609375,-0.953125 0.390625,0 0.828125,0.046875 1.140625,0.140625 z"
           id="path21"
           style="stroke:none" />
      </symbol>
      <symbol
         id="glyph0-5"
         style="overflow:visible">
        <path
           d="m 2.875,-3.75 -1.421875,0 c -0.171875,0 -0.25,0.0625 -0.25,0.171875 0,0.125 0.078125,0.1875 0.25,0.1875 l 1.0625,0 0,3.015625 -1.4375,0 c -0.171875,0 -0.25,0.0625 -0.25,0.1875 0,0.125 0.078125,0.1875 0.25,0.1875 L 4.3125,0 c 0.171875,0 0.265625,-0.0625 0.265625,-0.1875 0,-0.125 -0.09375,-0.1875 -0.265625,-0.1875 l -1.4375,0 z m -0.015625,-1.859375 -0.53125,0 0,0.921875 0.53125,0 z"
           id="path24"
           style="stroke:none" />
      </symbol>
      <symbol
         id="glyph0-6"
         style="overflow:visible">
        <path
           d="m 1.5,-3.75 -0.671875,0 c -0.15625,0 -0.25,0.0625 -0.25,0.171875 0,0.125 0.09375,0.1875 0.25,0.1875 l 0.3125,0 0,3.015625 -0.40625,0 c -0.171875,0 -0.25,0.0625 -0.25,0.1875 0,0.125 0.078125,0.1875 0.25,0.1875 L 1.90625,0 c 0.15625,0 0.25,-0.0625 0.25,-0.1875 0,-0.125 -0.09375,-0.1875 -0.25,-0.1875 l -0.40625,0 0,-2.265625 c 0.296875,-0.375 0.375,-0.46875 0.515625,-0.578125 0.25,-0.203125 0.515625,-0.296875 0.859375,-0.296875 0.34375,0 0.515625,0.0625 0.734375,0.234375 0.21875,0.1875 0.34375,0.421875 0.34375,0.6875 l 0,2.21875 -0.3125,0 c -0.15625,0 -0.234375,0.0625 -0.234375,0.1875 C 3.40625,-0.0625 3.484375,0 3.640625,0 L 4.625,0 c 0.15625,0 0.25,-0.0625 0.25,-0.1875 0,-0.125 -0.09375,-0.1875 -0.25,-0.1875 l -0.3125,0 0,-2.28125 c 0,-0.6875 -0.609375,-1.21875 -1.40625,-1.21875 -0.5625,0 -0.875,0.171875 -1.40625,0.75 z"
           id="path27"
           style="stroke:none" />
      </symbol>
      <symbol
         id="glyph0-7"
         style="overflow:visible">
        <path
           d="m 4.515625,-2.328125 c 0.15625,0 0.234375,-0.0625 0.234375,-0.1875 C 4.75,-2.625 4.671875,-2.6875 4.515625,-2.6875 l -3.625,0 c -0.15625,0 -0.25,0.0625 -0.25,0.171875 0,0.125 0.09375,0.1875 0.25,0.1875 z"
           id="path30"
           style="stroke:none" />
      </symbol>
      <symbol
         id="glyph0-8"
         style="overflow:visible">
        <path
           d="m 2.875,-2.34375 1.625,0 c 0.171875,0 0.25,-0.0625 0.25,-0.1875 0,-0.125 -0.078125,-0.1875 -0.25,-0.1875 l -1.625,0 0,-1.8125 c 0,-0.15625 -0.0625,-0.234375 -0.171875,-0.234375 -0.125,0 -0.1875,0.078125 -0.1875,0.234375 l 0,1.8125 -1.625,0 c -0.15625,0 -0.25,0.0625 -0.25,0.1875 0,0.125 0.09375,0.1875 0.25,0.1875 l 1.625,0 0,1.8125 c 0,0.15625 0.0625,0.25 0.1875,0.25 0.109375,0 0.171875,-0.09375 0.171875,-0.25 z"
           id="path33"
           style="stroke:none" />
      </symbol>
      <symbol
         id="glyph0-9"
         style="overflow:visible">
        <path
           d="m 2.4375,-3.390625 1.703125,0 c 0.15625,0 0.25,-0.0625 0.25,-0.1875 0,-0.109375 -0.09375,-0.171875 -0.25,-0.171875 l -1.703125,0 0,-0.546875 c 0,-0.453125 0.40625,-0.765625 1,-0.765625 0.203125,0 0.546875,0.015625 0.796875,0.046875 0.421875,0.0625 0.421875,0.0625 0.453125,0.0625 0.09375,0 0.1875,-0.078125 0.1875,-0.1875 0,-0.09375 -0.0625,-0.15625 -0.171875,-0.171875 -0.28125,-0.0625 -0.90625,-0.125 -1.25,-0.125 -0.8125,0 -1.390625,0.484375 -1.390625,1.140625 l 0,0.546875 -0.78125,0 c -0.171875,0 -0.25,0.0625 -0.25,0.171875 0,0.125 0.078125,0.1875 0.25,0.1875 l 0.78125,0 0,3.015625 -0.875,0 c -0.15625,0 -0.25,0.0625 -0.25,0.1875 0,0.125 0.09375,0.1875 0.25,0.1875 L 4.046875,0 C 4.1875,0 4.28125,-0.0625 4.28125,-0.1875 c 0,-0.125 -0.078125,-0.1875 -0.234375,-0.1875 l -1.609375,0 z"
           id="path36"
           style="stroke:none" />
      </symbol>
      <symbol
         id="glyph0-10"
         style="overflow:visible">
        <path
           d="m 2.234375,-3.75 -1.046875,0 c -0.15625,0 -0.25,0.0625 -0.25,0.171875 0,0.125 0.09375,0.1875 0.25,0.1875 l 0.671875,0 0,3.015625 L 1,-0.375 c -0.15625,0 -0.25,0.078125 -0.25,0.1875 C 0.75,-0.078125 0.84375,0 1,0 L 3.84375,0 C 4,0 4.09375,-0.078125 4.09375,-0.1875 4.09375,-0.296875 4,-0.375 3.84375,-0.375 l -1.609375,0 0,-1.984375 C 3.21875,-3.265625 3.53125,-3.46875 3.9375,-3.46875 c 0.203125,0 0.375,0.09375 0.59375,0.296875 0.0625,0.0625 0.078125,0.078125 0.15625,0.078125 0.09375,0 0.1875,-0.078125 0.1875,-0.1875 0,-0.078125 -0.0625,-0.15625 -0.21875,-0.28125 -0.234375,-0.203125 -0.421875,-0.28125 -0.6875,-0.28125 -0.453125,0 -0.90625,0.25 -1.734375,1.015625 z"
           id="path39"
           style="stroke:none" />
      </symbol>
      <symbol
         id="glyph0-11"
         style="overflow:visible">
        <path
           d="m 4.6875,-1.796875 c 0,-0.40625 -0.03125,-0.578125 -0.15625,-0.875 C 4.203125,-3.421875 3.484375,-3.875 2.625,-3.875 c -1.15625,0 -2.0625,0.828125 -2.0625,1.921875 0,1.171875 0.96875,2.09375 2.1875,2.09375 0.8125,0 1.890625,-0.421875 1.890625,-0.734375 0,-0.09375 -0.078125,-0.1875 -0.171875,-0.1875 -0.046875,0 -0.078125,0.03125 -0.140625,0.0625 -0.359375,0.296875 -1.015625,0.5 -1.578125,0.5 -0.96875,0 -1.6875,-0.625 -1.8125,-1.578125 z M 0.9375,-2.15625 C 1.09375,-2.984375 1.75,-3.515625 2.625,-3.515625 c 0.859375,0 1.53125,0.53125 1.671875,1.359375 z"
           id="path42"
           style="stroke:none" />
      </symbol>
      <symbol
         id="glyph0-12"
         style="overflow:visible">
        <path
           d="m 2.703125,-5.1875 c -1.25,0 -2.25,1.1875 -2.25,2.671875 0,1.484375 1,2.65625 2.25,2.65625 1.234375,0 2.234375,-1.171875 2.234375,-2.625 0,-1.53125 -0.96875,-2.703125 -2.234375,-2.703125 z m 0,0.375 c 1.046875,0 1.875,1.03125 1.875,2.3125 0,1.234375 -0.859375,2.28125 -1.875,2.28125 -1.03125,0 -1.875,-1.046875 -1.875,-2.296875 0,-1.265625 0.84375,-2.296875 1.875,-2.296875 z"
           id="path45"
           style="stroke:none" />
      </symbol>
      <symbol
         id="glyph0-13"
         style="overflow:visible">
        <path
           d="m 2.875,-5.4375 -1.421875,0 c -0.15625,0 -0.234375,0.0625 -0.234375,0.1875 0,0.125 0.078125,0.1875 0.234375,0.1875 l 1.0625,0 0,4.6875 -1.4375,0 c -0.171875,0 -0.25,0.0625 -0.25,0.1875 0,0.125 0.078125,0.1875 0.25,0.1875 L 4.3125,0 c 0.171875,0 0.265625,-0.0625 0.265625,-0.1875 0,-0.125 -0.09375,-0.1875 -0.265625,-0.1875 l -1.4375,0 z"
           id="path48"
           style="stroke:none" />
      </symbol>
      <symbol
         id="glyph0-14"
         style="overflow:visible">
        <path
           d="m 1.671875,-3.75 0,-1.078125 C 1.671875,-5 1.625,-5.0625 1.5,-5.0625 c -0.125,0 -0.1875,0.078125 -0.1875,0.234375 l 0,1.078125 -0.671875,0 c -0.171875,0 -0.25,0.0625 -0.25,0.171875 0,0.125 0.078125,0.1875 0.25,0.1875 l 0.671875,0 0,2.421875 c 0,0.6875 0.546875,1.109375 1.390625,1.109375 0.765625,0 1.78125,-0.34375 1.78125,-0.59375 0,-0.09375 -0.078125,-0.1875 -0.171875,-0.1875 -0.03125,0 -0.0625,0.015625 -0.140625,0.0625 C 3.828125,-0.375 3.1875,-0.21875 2.6875,-0.21875 c -0.625,0 -1.015625,-0.296875 -1.015625,-0.765625 l 0,-2.40625 1.984375,0 c 0.15625,0 0.234375,-0.0625 0.234375,-0.1875 C 3.890625,-3.6875 3.8125,-3.75 3.65625,-3.75 z"
           id="path51"
           style="stroke:none" />
      </symbol>
      <symbol
         id="glyph0-15"
         style="overflow:visible">
        <path
           d="m 2.703125,-3.875 c -1.140625,0 -2.0625,0.890625 -2.0625,2 0,1.125 0.921875,2.015625 2.0625,2.015625 C 3.828125,0.140625 4.75,-0.75 4.75,-1.84375 4.75,-2.984375 3.859375,-3.875 2.703125,-3.875 z m 0,0.359375 c 0.9375,0 1.6875,0.71875 1.6875,1.671875 0,0.890625 -0.765625,1.625 -1.6875,1.625 -0.9375,0 -1.6875,-0.734375 -1.6875,-1.65625 0,-0.90625 0.75,-1.640625 1.6875,-1.640625 z"
           id="path54"
           style="stroke:none" />
      </symbol>
      <symbol
         id="glyph0-16"
         style="overflow:visible">
        <path
           d="M 3.953125,0 4.625,0 c 0.15625,0 0.25,-0.0625 0.25,-0.1875 0,-0.125 -0.09375,-0.1875 -0.25,-0.1875 l -0.3125,0 0,-3.375 -1.03125,0 c -0.171875,0 -0.25,0.0625 -0.25,0.171875 0,0.125 0.078125,0.1875 0.25,0.1875 l 0.671875,0 0,2.359375 c -0.5,0.53125 -1.046875,0.8125 -1.65625,0.8125 -0.453125,0 -0.8125,-0.359375 -0.8125,-0.8125 l 0,-2.71875 -0.859375,0 c -0.15625,0 -0.234375,0.0625 -0.234375,0.171875 0,0.125 0.078125,0.1875 0.234375,0.1875 l 0.484375,0 0,2.359375 c 0,0.703125 0.484375,1.171875 1.203125,1.171875 0.59375,0 1.140625,-0.25 1.640625,-0.734375 z"
           id="path57"
           style="stroke:none" />
      </symbol>
      <symbol
         id="glyph0-17"
         style="overflow:visible">
        <path
           d="m 1.484375,-2.078125 1.171875,0 c 1.03125,0 1.828125,-0.671875 1.828125,-1.5 0,-0.84375 -0.734375,-1.484375 -1.6875,-1.484375 l -2.171875,0 c -0.15625,0 -0.234375,0.0625 -0.234375,0.171875 0,0.125 0.078125,0.1875 0.234375,0.1875 l 0.484375,0 0,4.328125 -0.484375,0 c -0.15625,0 -0.234375,0.0625 -0.234375,0.1875 C 0.390625,-0.0625 0.46875,0 0.625,0 l 2.109375,0 c 0.15625,0 0.25,-0.0625 0.25,-0.1875 0,-0.125 -0.09375,-0.1875 -0.25,-0.1875 l -1.25,0 z m 0,-0.375 0,-2.25 1.34375,0 c 0.703125,0 1.296875,0.515625 1.296875,1.125 0,0.609375 -0.65625,1.125 -1.4375,1.125 z"
           id="path60"
           style="stroke:none" />
      </symbol>
      <symbol
         id="glyph0-18"
         style="overflow:visible">
        <path
           d="m 1.296875,-3.75 -0.859375,0 c -0.15625,0 -0.234375,0.0625 -0.234375,0.171875 0,0.125 0.078125,0.1875 0.234375,0.1875 l 0.484375,0 0,4.703125 -0.484375,0 c -0.15625,0 -0.234375,0.0625 -0.234375,0.171875 0,0.125 0.078125,0.1875 0.234375,0.1875 l 1.734375,0 c 0.171875,0 0.25,-0.0625 0.25,-0.1875 0,-0.109375 -0.078125,-0.171875 -0.25,-0.171875 l -0.875,0 0,-2.265625 c 0.40625,0.59375 0.921875,0.859375 1.609375,0.859375 1.109375,0 1.96875,-0.828125 1.96875,-1.890625 C 4.875,-3.0625 4.015625,-3.875 2.90625,-3.875 c -0.6875,0 -1.140625,0.234375 -1.609375,0.859375 z m 1.59375,0.234375 C 3.8125,-3.515625 4.5,-2.84375 4.5,-1.96875 c 0,0.828125 -0.71875,1.515625 -1.609375,1.515625 -0.890625,0 -1.59375,-0.6875 -1.59375,-1.53125 0,-0.84375 0.703125,-1.53125 1.59375,-1.53125 z"
           id="path63"
           style="stroke:none" />
      </symbol>
      <symbol
         id="glyph0-19"
         style="overflow:visible">
        <path
           d="m 2.96875,-1.96875 1.453125,-1.421875 0.0625,0 c 0.171875,0 0.25,-0.0625 0.25,-0.1875 C 4.734375,-3.6875 4.65625,-3.75 4.484375,-3.75 L 3.5,-3.75 c -0.15625,0 -0.234375,0.0625 -0.234375,0.171875 0,0.125 0.078125,0.1875 0.234375,0.1875 l 0.4375,0 L 2.703125,-2.21875 1.5,-3.390625 l 0.40625,0 c 0.15625,0 0.25,-0.0625 0.25,-0.1875 0,-0.125 -0.09375,-0.171875 -0.25,-0.171875 l -1,0 c -0.15625,0 -0.234375,0.0625 -0.234375,0.171875 0,0.125 0.078125,0.1875 0.234375,0.1875 l 0.0625,0 1.46875,1.421875 -1.65625,1.59375 -0.078125,0 c -0.15625,0 -0.25,0.0625 -0.25,0.1875 0,0.125 0.09375,0.1875 0.25,0.1875 L 1.90625,0 c 0.15625,0 0.234375,-0.0625 0.234375,-0.1875 0,-0.125 -0.078125,-0.1875 -0.234375,-0.1875 l -0.625,0 1.421875,-1.328125 1.390625,1.328125 -0.578125,0 c -0.171875,0 -0.25,0.0625 -0.25,0.1875 0,0.125 0.078125,0.1875 0.25,0.1875 l 1.1875,0 C 4.859375,0 4.9375,-0.0625 4.9375,-0.1875 c 0,-0.125 -0.078125,-0.1875 -0.234375,-0.1875 l -0.09375,0 z"
           id="path66"
           style="stroke:none" />
      </symbol>
      <symbol
         id="glyph0-20"
         style="overflow:visible">
        <path
           d="M 4.234375,-3.390625 C 3.859375,-3.703125 3.375,-3.875 2.828125,-3.875 1.625,-3.875 0.75,-3.03125 0.75,-1.84375 c 0,1.15625 0.859375,1.984375 2.03125,1.984375 0.59375,0 1.1875,-0.171875 1.640625,-0.484375 C 4.6875,-0.515625 4.8125,-0.6875 4.8125,-0.796875 4.8125,-0.875 4.734375,-0.96875 4.640625,-0.96875 c -0.0625,0 -0.09375,0.03125 -0.15625,0.09375 -0.46875,0.4375 -1.03125,0.65625 -1.6875,0.65625 -0.984375,0 -1.671875,-0.6875 -1.671875,-1.625 0,-0.984375 0.6875,-1.671875 1.671875,-1.671875 0.765625,0 1.390625,0.390625 1.4375,0.859375 0.015625,0.15625 0.0625,0.21875 0.1875,0.21875 0.109375,0 0.171875,-0.078125 0.171875,-0.25 l 0,-0.8125 c 0,-0.171875 -0.0625,-0.25 -0.171875,-0.25 -0.125,0 -0.1875,0.078125 -0.1875,0.25 z"
           id="path69"
           style="stroke:none" />
      </symbol>
      <symbol
         id="glyph0-21"
         style="overflow:visible">
        <path
           d="M 3.890625,-3.46875 C 3.578125,-3.75 3.171875,-3.875 2.65625,-3.875 c -0.890625,0 -1.546875,0.421875 -1.546875,1.015625 0,0.28125 0.171875,0.546875 0.421875,0.703125 0.25,0.15625 0.5,0.21875 1.171875,0.296875 C 3.1875,-1.8125 3.4375,-1.75 3.671875,-1.625 c 0.25,0.140625 0.390625,0.359375 0.390625,0.578125 0,0.46875 -0.59375,0.828125 -1.375,0.828125 -0.765625,0 -1.390625,-0.34375 -1.390625,-0.75 l 0,-0.0625 c 0,-0.125 -0.078125,-0.203125 -0.1875,-0.203125 -0.125,0 -0.1875,0.078125 -0.1875,0.25 l 0,0.734375 c 0,0.171875 0.0625,0.25 0.1875,0.25 0.125,0 0.1875,-0.078125 0.1875,-0.25 l 0,-0.09375 c 0.375,0.328125 0.828125,0.484375 1.40625,0.484375 1.015625,0 1.765625,-0.5 1.765625,-1.1875 0,-0.3125 -0.171875,-0.625 -0.453125,-0.8125 -0.28125,-0.1875 -0.609375,-0.28125 -1.15625,-0.34375 C 2.0625,-2.28125 2,-2.296875 1.8125,-2.4375 1.625,-2.53125 1.515625,-2.6875 1.515625,-2.828125 c 0,-0.390625 0.515625,-0.6875 1.171875,-0.6875 0.6875,0 1.15625,0.265625 1.203125,0.671875 0.015625,0.140625 0.078125,0.203125 0.1875,0.203125 C 4.1875,-2.640625 4.25,-2.71875 4.25,-2.875 l 0,-0.625 c 0,-0.171875 -0.0625,-0.25 -0.171875,-0.25 -0.125,0 -0.1875,0.09375 -0.1875,0.25 z"
           id="path72"
           style="stroke:none" />
      </symbol>
      <symbol
         id="glyph0-22"
         style="overflow:visible">
        <path
           d="m 2.921875,-2.59375 1.609375,-2.109375 0.140625,0 c 0.15625,0 0.234375,-0.0625 0.234375,-0.1875 0,-0.125 -0.078125,-0.171875 -0.234375,-0.171875 l -1,0 c -0.15625,0 -0.25,0.0625 -0.25,0.171875 0,0.125 0.09375,0.1875 0.25,0.1875 l 0.40625,0 -1.375,1.8125 -1.390625,-1.8125 0.375,0 c 0.171875,0 0.25,-0.0625 0.25,-0.1875 C 1.9375,-5 1.859375,-5.0625 1.6875,-5.0625 l -0.984375,0 c -0.15625,0 -0.25,0.0625 -0.25,0.171875 0,0.125 0.09375,0.1875 0.25,0.1875 l 0.140625,0 L 2.453125,-2.59375 0.75,-0.375 l -0.140625,0 c -0.171875,0 -0.25,0.0625 -0.25,0.1875 0,0.125 0.078125,0.1875 0.25,0.1875 L 1.78125,0 c 0.15625,0 0.25,-0.0625 0.25,-0.1875 0,-0.125 -0.09375,-0.1875 -0.25,-0.1875 l -0.578125,0 1.484375,-1.921875 1.484375,1.921875 -0.5625,0 c -0.15625,0 -0.25,0.0625 -0.25,0.1875 0,0.125 0.09375,0.1875 0.25,0.1875 l 1.1875,0 c 0.15625,0 0.25,-0.0625 0.25,-0.1875 0,-0.125 -0.09375,-0.1875 -0.25,-0.1875 l -0.15625,0 z"
           id="path75"
           style="stroke:none" />
      </symbol>
      <symbol
         id="glyph0-23"
         style="overflow:visible">
        <path
           d="m 1.109375,-0.375 -0.484375,0 c -0.15625,0 -0.234375,0.0625 -0.234375,0.1875 C 0.390625,-0.0625 0.46875,0 0.625,0 L 3.390625,0 C 4.203125,0 4.875,-0.625 4.875,-1.375 4.875,-1.984375 4.484375,-2.40625 3.71875,-2.6875 4.25,-2.96875 4.484375,-3.296875 4.484375,-3.765625 4.484375,-4.5 3.828125,-5.0625 2.953125,-5.0625 l -2.328125,0 c -0.15625,0 -0.234375,0.0625 -0.234375,0.171875 0,0.125 0.078125,0.1875 0.234375,0.1875 l 0.484375,0 z m 0.375,-2.4375 0,-1.890625 1.484375,0 c 0.65625,0 1.15625,0.40625 1.15625,0.9375 0,0.546875 -0.546875,0.953125 -1.3125,0.953125 z m 0,2.4375 0,-2.078125 1.34375,0 c 0.546875,0 0.859375,0.0625 1.140625,0.234375 C 4.296875,-2.015625 4.5,-1.703125 4.5,-1.375 c 0,0.5625 -0.5,1 -1.140625,1 z"
           id="path78"
           style="stroke:none" />
      </symbol>
      <symbol
         id="glyph0-24"
         style="overflow:visible">
        <path
           d="m 4.515625,0 0,-4.703125 0.296875,0 c 0.171875,0 0.25,-0.0625 0.25,-0.1875 C 5.0625,-5 4.984375,-5.0625 4.8125,-5.0625 l -1.34375,0 c -0.171875,0 -0.25,0.0625 -0.25,0.171875 0,0.125 0.078125,0.1875 0.25,0.1875 l 0.671875,0 0,4.171875 -2.75,-4.53125 -0.953125,0 c -0.15625,0 -0.234375,0.0625 -0.234375,0.171875 0,0.125 0.078125,0.1875 0.234375,0.1875 l 0.484375,0 0,4.328125 -0.296875,0 c -0.171875,0 -0.25,0.0625 -0.25,0.1875 C 0.375,-0.0625 0.453125,0 0.625,0 l 1.34375,0 c 0.15625,0 0.25,-0.0625 0.25,-0.1875 0,-0.125 -0.078125,-0.1875 -0.25,-0.1875 l -0.671875,0 0,-4.15625 2.75,4.53125 z"
           id="path81"
           style="stroke:none" />
      </symbol>
      <symbol
         id="glyph0-25"
         style="overflow:visible">
        <path
           d="m 2.53125,0 -0.625,1.3125 -1.15625,0 c -0.15625,0 -0.234375,0.0625 -0.234375,0.171875 0,0.125 0.078125,0.1875 0.234375,0.1875 l 2.109375,0 c 0.15625,0 0.234375,-0.0625 0.234375,-0.1875 C 3.09375,1.375 3.015625,1.3125 2.859375,1.3125 l -0.59375,0 2.3125,-4.703125 0.125,0 c 0.15625,0 0.234375,-0.0625 0.234375,-0.1875 C 4.9375,-3.6875 4.859375,-3.75 4.703125,-3.75 l -1,0 c -0.15625,0 -0.234375,0.0625 -0.234375,0.171875 0,0.125 0.078125,0.1875 0.234375,0.1875 l 0.484375,0 -1.4375,2.984375 -1.484375,-2.984375 0.46875,0 c 0.171875,0 0.25,-0.0625 0.25,-0.1875 0,-0.109375 -0.078125,-0.171875 -0.25,-0.171875 l -1.03125,0 c -0.15625,0 -0.25,0.0625 -0.25,0.171875 0,0.125 0.09375,0.1875 0.25,0.1875 l 0.140625,0 z"
           id="path84"
           style="stroke:none" />
      </symbol>
      <symbol
         id="glyph0-26"
         style="overflow:visible">
        <path
           d="m 2.9375,-1.515625 1.40625,-3.1875 0.078125,0 0,4.328125 -0.671875,0 c -0.15625,0 -0.234375,0.0625 -0.234375,0.1875 C 3.515625,-0.0625 3.59375,0 3.75,0 l 1.34375,0 c 0.15625,0 0.25,-0.0625 0.25,-0.1875 0,-0.125 -0.09375,-0.1875 -0.25,-0.1875 l -0.3125,0 0,-4.328125 0.234375,0 c 0.15625,0 0.234375,-0.0625 0.234375,-0.1875 C 5.25,-5 5.171875,-5.0625 5.015625,-5.0625 l -0.90625,0 -1.375,3.125 -1.421875,-3.125 -0.890625,0 C 0.265625,-5.0625 0.1875,-5 0.1875,-4.890625 c 0,0.125 0.078125,0.1875 0.234375,0.1875 l 0.21875,0 0,4.328125 -0.296875,0 c -0.15625,0 -0.25,0.0625 -0.25,0.1875 0,0.125 0.09375,0.1875 0.25,0.1875 L 1.6875,0 c 0.15625,0 0.25,-0.0625 0.25,-0.1875 0,-0.125 -0.078125,-0.1875 -0.25,-0.1875 l -0.671875,0 0,-4.328125 0.078125,0 1.421875,3.1875 z"
           id="path87"
           style="stroke:none" />
      </symbol>
      <symbol
         id="glyph0-27"
         style="overflow:visible">
        <path
           d="m 3.953125,-3 c -0.390625,-0.609375 -0.875,-0.875 -1.53125,-0.875 -1.015625,0 -1.859375,0.84375 -1.859375,1.890625 0,1.046875 0.84375,1.890625 1.859375,1.890625 0.640625,0 1.140625,-0.28125 1.53125,-0.875 l 0,1.171875 C 3.953125,0.8125 3.46875,1.3125 2.859375,1.3125 l -1.046875,0 c -0.15625,0 -0.234375,0.0625 -0.234375,0.171875 0,0.125 0.078125,0.1875 0.234375,0.1875 l 1.03125,0 C 3.296875,1.671875 3.625,1.515625 3.9375,1.1875 4.21875,0.90625 4.328125,0.625 4.328125,0.25 l 0,-3.640625 0.484375,0 c 0.171875,0 0.25,-0.0625 0.25,-0.1875 C 5.0625,-3.6875 4.984375,-3.75 4.8125,-3.75 l -0.859375,0 z m -1.5,-0.515625 c 0.84375,0 1.5,0.671875 1.5,1.546875 0,0.828125 -0.671875,1.515625 -1.5,1.515625 -0.84375,0 -1.515625,-0.6875 -1.515625,-1.53125 0,-0.84375 0.671875,-1.53125 1.515625,-1.53125 z"
           id="path90"
           style="stroke:none" />
      </symbol>
      <symbol
         id="glyph1-0"
         style="overflow:visible">
        <path
           d="m 0.453125,1.59375 0,-7.9375 4.5,0 0,7.9375 z m 0.515625,-0.5 3.484375,0 0,-6.9375 -3.484375,0 z"
           id="path93"
           style="stroke:none" />
      </symbol>
      <symbol
         id="glyph1-1"
         style="overflow:visible">
        <path
           d="m 0.03125,0.34375 2.671875,-5.359375 2.6875,5.359375 z"
           id="path96"
           style="stroke:none" />
      </symbol>
      <symbol
         id="glyph1-2"
         style="overflow:visible">
        <path
           d="m 0.03125,-2.34375 5.359375,-2.671875 0,5.359375 z"
           id="path99"
           style="stroke:none" />
      </symbol>
      <symbol
         id="glyph1-3"
         style="overflow:visible">
        <path
           d="m 0.03125,0.34375 0,-5.359375 5.359375,2.671875 z"
           id="path102"
           style="stroke:none" />
      </symbol>
    </g>
  </defs>
  <g
     transform="translate(-56.893749,-60.084373)"
     id="surface1">
    <g
       id="g105"
       style="fill:#000000;fill-opacity:1">
      <use
         id="use107"
         x="56.799999"
         y="65.099998"
         width="595"
         height="842"
         xlink:href="#glyph0-1" />
      <use
         id="use109"
         x="62.200001"
         y="65.099998"
         width="595"
         height="842"
         xlink:href="#glyph0-1" />
    </g>
    <g
       id="g111"
       style="fill:#ff0000;fill-opacity:1">
      <use
         id="use113"
         x="67.599998"
         y="65.099998"
         width="595"
         height="842"
         xlink:href="#glyph1-1" />
    </g>
    <g
       id="g115"
       style="fill:#000000;fill-opacity:1">
      <use
         id="use117"
         x="56.799999"
         y="75.900002"
         width="595"
         height="842"
         xlink:href="#glyph0-1" />
      <use
         id="use119"
         x="62.200001"
         y="75.900002"
         width="595"
         height="842"
         xlink:href="#glyph0-1" />
    </g>
    <g
       id="g121"
       style="fill:#ff0000;fill-opacity:1">
      <use
         id="use123"
         x="67.599998"
         y="75.900002"
         width="595"
         height="842"
         xlink:href="#glyph0-2" />
    </g>
    <g
       id="g125"
       style="fill:#000000;fill-opacity:1">
      <use
         id="use127"
         x="56.799999"
         y="86.699997"
         width="595"
         height="842"
         xlink:href="#glyph0-3" />
      <use
         id="use129"
         x="62.200001"
         y="86.699997"
         width="595"
         height="842"
         xlink:href="#glyph0-4" />
      <use
         id="use131"
         x="67.599998"
         y="86.699997"
         width="595"
         height="842"
         xlink:href="#glyph0-5" />
      <use
         id="use133"
         x="73"
         y="86.699997"
         width="595"
         height="842"
         xlink:href="#glyph0-6" />
      <use
         id="use135"
         x="78.400002"
         y="86.699997"
         width="595"
         height="842"
         xlink:href="#glyph0-1" />
    </g>
    <g
       id="g137"
       style="fill:#ff0000;fill-opacity:1">
      <use
         id="use139"
         x="89.199997"
         y="86.699997"
         width="595"
         height="842"
         xlink:href="#glyph0-7" />
      <use
         id="use141"
         x="94.599998"
         y="86.699997"
         width="595"
         height="842"
         xlink:href="#glyph0-7" />
      <use
         id="use143"
         x="100"
         y="86.699997"
         width="595"
         height="842"
         xlink:href="#glyph0-7" />
      <use
         id="use145"
         x="105.4"
         y="86.699997"
         width="595"
         height="842"
         xlink:href="#glyph0-8" />
    </g>
    <g
       id="g147"
       style="fill:#ff0000;fill-opacity:1">
      <use
         id="use149"
         x="83.800003"
         y="86.699997"
         width="595"
         height="842"
         xlink:href="#glyph1-2" />
    </g>
    <g
       id="g151"
       style="fill:#000000;fill-opacity:1">
      <use
         id="use153"
         x="56.799999"
         y="97.5"
         width="595"
         height="842"
         xlink:href="#glyph0-1" />
      <use
         id="use155"
         x="62.200001"
         y="97.5"
         width="595"
         height="842"
         xlink:href="#glyph0-1" />
      <use
         id="use157"
         x="67.599998"
         y="97.5"
         width="595"
         height="842"
         xlink:href="#glyph0-2" />
      <use
         id="use159"
         x="73"
         y="97.5"
         width="595"
         height="842"
         xlink:href="#glyph0-1" />
      <use
         id="use161"
         x="78.400002"
         y="97.5"
         width="595"
         height="842"
         xlink:href="#glyph0-1" />
      <use
         id="use163"
         x="83.800003"
         y="97.5"
         width="595"
         height="842"
         xlink:href="#glyph0-1" />
      <use
         id="use165"
         x="89.199997"
         y="97.5"
         width="595"
         height="842"
         xlink:href="#glyph0-1" />
      <use
         id="use167"
         x="94.599998"
         y="97.5"
         width="595"
         height="842"
         xlink:href="#glyph0-1" />
      <use
         id="use169"
         x="100"
         y="97.5"
         width="595"
         height="842"
         xlink:href="#glyph0-1" />
    </g>
    <g
       id="g171"
       style="fill:#ff0000;fill-opacity:1">
      <use
         id="use173"
         x="105.4"
         y="97.5"
         width="595"
         height="842"
         xlink:href="#glyph0-2" />
    </g>
    <g
       id="g175"
       style="fill:#000000;fill-opacity:1">
      <use
         id="use177"
         x="56.799999"
         y="108.3"
         width="595"
         height="842"
         xlink:href="#glyph0-1" />
      <use
         id="use179"
         x="62.200001"
         y="108.3"
         width="595"
         height="842"
         xlink:href="#glyph0-1" />
      <use
         id="use181"
         x="67.599998"
         y="108.3"
         width="595"
         height="842"
         xlink:href="#glyph0-8" />
      <use
         id="use183"
         x="73"
         y="108.3"
         width="595"
         height="842"
         xlink:href="#glyph0-7" />
      <use
         id="use185"
         x="78.400002"
         y="108.3"
         width="595"
         height="842"
         xlink:href="#glyph0-7" />
    </g>
    <g
       id="g187"
       style="fill:#000000;fill-opacity:1">
      <use
         id="use189"
         x="89.191002"
         y="108.3"
         width="595"
         height="842"
         xlink:href="#glyph0-1" />
      <use
         id="use191"
         x="94.591003"
         y="108.3"
         width="595"
         height="842"
         xlink:href="#glyph0-9" />
      <use
         id="use193"
         x="99.990997"
         y="108.3"
         width="595"
         height="842"
         xlink:href="#glyph0-4" />
      <use
         id="use195"
         x="105.391"
         y="108.3"
         width="595"
         height="842"
         xlink:href="#glyph0-5" />
      <use
         id="use197"
         x="110.791"
         y="108.3"
         width="595"
         height="842"
         xlink:href="#glyph0-10" />
      <use
         id="use199"
         x="116.191"
         y="108.3"
         width="595"
         height="842"
         xlink:href="#glyph0-11" />
      <use
         id="use201"
         x="121.591"
         y="108.3"
         width="595"
         height="842"
         xlink:href="#glyph0-12" />
      <use
         id="use203"
         x="126.991"
         y="108.3"
         width="595"
         height="842"
         xlink:href="#glyph0-3" />
      <use
         id="use205"
         x="132.39101"
         y="108.3"
         width="595"
         height="842"
         xlink:href="#glyph0-11" />
      <use
         id="use207"
         x="137.791"
         y="108.3"
         width="595"
         height="842"
         xlink:href="#glyph0-13" />
      <use
         id="use209"
         x="143.19099"
         y="108.3"
         width="595"
         height="842"
         xlink:href="#glyph0-11" />
      <use
         id="use211"
         x="148.591"
         y="108.3"
         width="595"
         height="842"
         xlink:href="#glyph0-14" />
      <use
         id="use213"
         x="153.991"
         y="108.3"
         width="595"
         height="842"
         xlink:href="#glyph0-14" />
      <use
         id="use215"
         x="159.39101"
         y="108.3"
         width="595"
         height="842"
         xlink:href="#glyph0-11" />
      <use
         id="use217"
         x="164.791"
         y="108.3"
         width="595"
         height="842"
         xlink:href="#glyph0-1" />
    </g>
    <g
       id="g219"
       style="fill:#000000;fill-opacity:1">
      <use
         id="use221"
         x="83.800003"
         y="108.3"
         width="595"
         height="842"
         xlink:href="#glyph1-3" />
    </g>
    <g
       id="g223"
       style="fill:#ff0000;fill-opacity:1">
      <use
         id="use225"
         x="175.60001"
         y="108.3"
         width="595"
         height="842"
         xlink:href="#glyph0-7" />
      <use
         id="use227"
         x="181"
         y="108.3"
         width="595"
         height="842"
         xlink:href="#glyph0-8" />
    </g>
    <g
       id="g229"
       style="fill:#ff0000;fill-opacity:1">
      <use
         id="use231"
         x="170.2"
         y="108.3"
         width="595"
         height="842"
         xlink:href="#glyph1-2" />
    </g>
    <g
       id="g233"
       style="fill:#000000;fill-opacity:1">
      <use
         id="use235"
         x="56.799999"
         y="119.1"
         width="595"
         height="842"
         xlink:href="#glyph0-1" />
      <use
         id="use237"
         x="62.200001"
         y="119.1"
         width="595"
         height="842"
         xlink:href="#glyph0-1" />
      <use
         id="use239"
         x="67.599998"
         y="119.1"
         width="595"
         height="842"
         xlink:href="#glyph0-2" />
      <use
         id="use241"
         x="73"
         y="119.1"
         width="595"
         height="842"
         xlink:href="#glyph0-1" />
      <use
         id="use243"
         x="78.400002"
         y="119.1"
         width="595"
         height="842"
         xlink:href="#glyph0-1" />
      <use
         id="use245"
         x="83.800003"
         y="119.1"
         width="595"
         height="842"
         xlink:href="#glyph0-1" />
      <use
         id="use247"
         x="89.199997"
         y="119.1"
         width="595"
         height="842"
         xlink:href="#glyph0-1" />
      <use
         id="use249"
         x="94.599998"
         y="119.1"
         width="595"
         height="842"
         xlink:href="#glyph0-1" />
      <use
         id="use251"
         x="100"
         y="119.1"
         width="595"
         height="842"
         xlink:href="#glyph0-1" />
      <use
         id="use253"
         x="105.4"
         y="119.1"
         width="595"
         height="842"
         xlink:href="#glyph0-2" />
      <use
         id="use255"
         x="110.8"
         y="119.1"
         width="595"
         height="842"
         xlink:href="#glyph0-1" />
      <use
         id="use257"
         x="116.2"
         y="119.1"
         width="595"
         height="842"
         xlink:href="#glyph0-1" />
      <use
         id="use259"
         x="121.6"
         y="119.1"
         width="595"
         height="842"
         xlink:href="#glyph0-1" />
      <use
         id="use261"
         x="127"
         y="119.1"
         width="595"
         height="842"
         xlink:href="#glyph0-1" />
      <use
         id="use263"
         x="132.39999"
         y="119.1"
         width="595"
         height="842"
         xlink:href="#glyph0-1" />
      <use
         id="use265"
         x="137.8"
         y="119.1"
         width="595"
         height="842"
         xlink:href="#glyph0-1" />
      <use
         id="use267"
         x="143.2"
         y="119.1"
         width="595"
         height="842"
         xlink:href="#glyph0-1" />
      <use
         id="use269"
         x="148.60001"
         y="119.1"
         width="595"
         height="842"
         xlink:href="#glyph0-1" />
      <use
         id="use271"
         x="154"
         y="119.1"
         width="595"
         height="842"
         xlink:href="#glyph0-1" />
      <use
         id="use273"
         x="159.39999"
         y="119.1"
         width="595"
         height="842"
         xlink:href="#glyph0-1" />
      <use
         id="use275"
         x="164.8"
         y="119.1"
         width="595"
         height="842"
         xlink:href="#glyph0-1" />
      <use
         id="use277"
         x="170.2"
         y="119.1"
         width="595"
         height="842"
         xlink:href="#glyph0-1" />
      <use
         id="use279"
         x="175.60001"
         y="119.1"
         width="595"
         height="842"
         xlink:href="#glyph0-1" />
    </g>
    <g
       id="g281"
       style="fill:#ff0000;fill-opacity:1">
      <use
         id="use283"
         x="181"
         y="119.1"
         width="595"
         height="842"
         xlink:href="#glyph0-2" />
    </g>
    <g
       id="g285"
       style="fill:#000000;fill-opacity:1">
      <use
         id="use287"
         x="56.799999"
         y="129.89999"
         width="595"
         height="842"
         xlink:href="#glyph0-1" />
      <use
         id="use289"
         x="62.200001"
         y="129.89999"
         width="595"
         height="842"
         xlink:href="#glyph0-1" />
      <use
         id="use291"
         x="67.599998"
         y="129.89999"
         width="595"
         height="842"
         xlink:href="#glyph0-2" />
      <use
         id="use293"
         x="73"
         y="129.89999"
         width="595"
         height="842"
         xlink:href="#glyph0-1" />
      <use
         id="use295"
         x="78.400002"
         y="129.89999"
         width="595"
         height="842"
         xlink:href="#glyph0-1" />
      <use
         id="use297"
         x="83.800003"
         y="129.89999"
         width="595"
         height="842"
         xlink:href="#glyph0-1" />
      <use
         id="use299"
         x="89.199997"
         y="129.89999"
         width="595"
         height="842"
         xlink:href="#glyph0-1" />
      <use
         id="use301"
         x="94.599998"
         y="129.89999"
         width="595"
         height="842"
         xlink:href="#glyph0-1" />
      <use
         id="use303"
         x="100"
         y="129.89999"
         width="595"
         height="842"
         xlink:href="#glyph0-1" />
      <use
         id="use305"
         x="105.4"
         y="129.89999"
         width="595"
         height="842"
         xlink:href="#glyph0-8" />
      <use
         id="use307"
         x="110.8"
         y="129.89999"
         width="595"
         height="842"
         xlink:href="#glyph0-7" />
      <use
         id="use309"
         x="116.2"
         y="129.89999"
         width="595"
         height="842"
         xlink:href="#glyph0-7" />
    </g>
    <g
       id="g311"
       style="fill:#000000;fill-opacity:1">
      <use
         id="use313"
         x="126.991"
         y="129.89999"
         width="595"
         height="842"
         xlink:href="#glyph0-1" />
      <use
         id="use315"
         x="132.39101"
         y="129.89999"
         width="595"
         height="842"
         xlink:href="#glyph0-14" />
      <use
         id="use317"
         x="137.791"
         y="129.89999"
         width="595"
         height="842"
         xlink:href="#glyph0-15" />
      <use
         id="use319"
         x="143.19099"
         y="129.89999"
         width="595"
         height="842"
         xlink:href="#glyph0-16" />
      <use
         id="use321"
         x="148.591"
         y="129.89999"
         width="595"
         height="842"
         xlink:href="#glyph0-14" />
      <use
         id="use323"
         x="153.991"
         y="129.89999"
         width="595"
         height="842"
         xlink:href="#glyph0-17" />
      <use
         id="use325"
         x="159.39101"
         y="129.89999"
         width="595"
         height="842"
         xlink:href="#glyph0-10" />
      <use
         id="use327"
         x="164.791"
         y="129.89999"
         width="595"
         height="842"
         xlink:href="#glyph0-11" />
      <use
         id="use329"
         x="170.19099"
         y="129.89999"
         width="595"
         height="842"
         xlink:href="#glyph0-18" />
      <use
         id="use331"
         x="175.591"
         y="129.89999"
         width="595"
         height="842"
         xlink:href="#glyph0-4" />
      <use
         id="use333"
         x="180.991"
         y="129.89999"
         width="595"
         height="842"
         xlink:href="#glyph0-10" />
      <use
         id="use335"
         x="186.39101"
         y="129.89999"
         width="595"
         height="842"
         xlink:href="#glyph0-11" />
      <use
         id="use337"
         x="191.791"
         y="129.89999"
         width="595"
         height="842"
         xlink:href="#glyph0-10" />
      <use
         id="use339"
         x="197.19099"
         y="129.89999"
         width="595"
         height="842"
         xlink:href="#glyph0-1" />
    </g>
    <g
       id="g341"
       style="fill:#000000;fill-opacity:1">
      <use
         id="use343"
         x="121.6"
         y="129.89999"
         width="595"
         height="842"
         xlink:href="#glyph1-3" />
    </g>
    <g
       id="g345"
       style="fill:#ff0000;fill-opacity:1">
      <use
         id="use347"
         x="208"
         y="129.89999"
         width="595"
         height="842"
         xlink:href="#glyph0-7" />
      <use
         id="use349"
         x="213.39999"
         y="129.89999"
         width="595"
         height="842"
         xlink:href="#glyph0-7" />
      <use
         id="use351"
         x="218.8"
         y="129.89999"
         width="595"
         height="842"
         xlink:href="#glyph0-7" />
      <use
         id="use353"
         x="224.2"
         y="129.89999"
         width="595"
         height="842"
         xlink:href="#glyph0-7" />
      <use
         id="use355"
         x="229.60001"
         y="129.89999"
         width="595"
         height="842"
         xlink:href="#glyph0-7" />
      <use
         id="use357"
         x="235"
         y="129.89999"
         width="595"
         height="842"
         xlink:href="#glyph0-7" />
      <use
         id="use359"
         x="240.39999"
         y="129.89999"
         width="595"
         height="842"
         xlink:href="#glyph0-7" />
      <use
         id="use361"
         x="245.8"
         y="129.89999"
         width="595"
         height="842"
         xlink:href="#glyph0-7" />
      <use
         id="use363"
         x="251.2"
         y="129.89999"
         width="595"
         height="842"
         xlink:href="#glyph0-7" />
      <use
         id="use365"
         x="256.60001"
         y="129.89999"
         width="595"
         height="842"
         xlink:href="#glyph0-7" />
      <use
         id="use367"
         x="262"
         y="129.89999"
         width="595"
         height="842"
         xlink:href="#glyph0-7" />
      <use
         id="use369"
         x="267.39999"
         y="129.89999"
         width="595"
         height="842"
         xlink:href="#glyph0-7" />
      <use
         id="use371"
         x="272.79999"
         y="129.89999"
         width="595"
         height="842"
         xlink:href="#glyph0-8" />
    </g>
    <g
       id="g373"
       style="fill:#ff0000;fill-opacity:1">
      <use
         id="use375"
         x="202.60001"
         y="129.89999"
         width="595"
         height="842"
         xlink:href="#glyph1-2" />
    </g>
    <g
       id="g377"
       style="fill:#000000;fill-opacity:1">
      <use
         id="use379"
         x="56.799999"
         y="140.7"
         width="595"
         height="842"
         xlink:href="#glyph0-1" />
      <use
         id="use381"
         x="62.200001"
         y="140.7"
         width="595"
         height="842"
         xlink:href="#glyph0-1" />
      <use
         id="use383"
         x="67.599998"
         y="140.7"
         width="595"
         height="842"
         xlink:href="#glyph0-2" />
      <use
         id="use385"
         x="73"
         y="140.7"
         width="595"
         height="842"
         xlink:href="#glyph0-1" />
      <use
         id="use387"
         x="78.400002"
         y="140.7"
         width="595"
         height="842"
         xlink:href="#glyph0-1" />
      <use
         id="use389"
         x="83.800003"
         y="140.7"
         width="595"
         height="842"
         xlink:href="#glyph0-1" />
      <use
         id="use391"
         x="89.199997"
         y="140.7"
         width="595"
         height="842"
         xlink:href="#glyph0-1" />
      <use
         id="use393"
         x="94.599998"
         y="140.7"
         width="595"
         height="842"
         xlink:href="#glyph0-1" />
      <use
         id="use395"
         x="100"
         y="140.7"
         width="595"
         height="842"
         xlink:href="#glyph0-1" />
      <use
         id="use397"
         x="105.4"
         y="140.7"
         width="595"
         height="842"
         xlink:href="#glyph0-2" />
      <use
         id="use399"
         x="110.8"
         y="140.7"
         width="595"
         height="842"
         xlink:href="#glyph0-1" />
      <use
         id="use401"
         x="116.2"
         y="140.7"
         width="595"
         height="842"
         xlink:href="#glyph0-1" />
      <use
         id="use403"
         x="121.6"
         y="140.7"
         width="595"
         height="842"
         xlink:href="#glyph0-1" />
      <use
         id="use405"
         x="127"
         y="140.7"
         width="595"
         height="842"
         xlink:href="#glyph0-1" />
      <use
         id="use407"
         x="132.39999"
         y="140.7"
         width="595"
         height="842"
         xlink:href="#glyph0-1" />
      <use
         id="use409"
         x="137.8"
         y="140.7"
         width="595"
         height="842"
         xlink:href="#glyph0-1" />
      <use
         id="use411"
         x="143.2"
         y="140.7"
         width="595"
         height="842"
         xlink:href="#glyph0-1" />
      <use
         id="use413"
         x="148.60001"
         y="140.7"
         width="595"
         height="842"
         xlink:href="#glyph0-1" />
      <use
         id="use415"
         x="154"
         y="140.7"
         width="595"
         height="842"
         xlink:href="#glyph0-1" />
      <use
         id="use417"
         x="159.39999"
         y="140.7"
         width="595"
         height="842"
         xlink:href="#glyph0-1" />
      <use
         id="use419"
         x="164.8"
         y="140.7"
         width="595"
         height="842"
         xlink:href="#glyph0-2" />
      <use
         id="use421"
         x="170.2"
         y="140.7"
         width="595"
         height="842"
         xlink:href="#glyph0-1" />
      <use
         id="use423"
         x="175.60001"
         y="140.7"
         width="595"
         height="842"
         xlink:href="#glyph0-1" />
      <use
         id="use425"
         x="181"
         y="140.7"
         width="595"
         height="842"
         xlink:href="#glyph0-1" />
      <use
         id="use427"
         x="186.39999"
         y="140.7"
         width="595"
         height="842"
         xlink:href="#glyph0-1" />
      <use
         id="use429"
         x="191.8"
         y="140.7"
         width="595"
         height="842"
         xlink:href="#glyph0-1" />
      <use
         id="use431"
         x="197.2"
         y="140.7"
         width="595"
         height="842"
         xlink:href="#glyph0-1" />
      <use
         id="use433"
         x="202.60001"
         y="140.7"
         width="595"
         height="842"
         xlink:href="#glyph0-1" />
      <use
         id="use435"
         x="208"
         y="140.7"
         width="595"
         height="842"
         xlink:href="#glyph0-1" />
      <use
         id="use437"
         x="213.39999"
         y="140.7"
         width="595"
         height="842"
         xlink:href="#glyph0-1" />
      <use
         id="use439"
         x="218.8"
         y="140.7"
         width="595"
         height="842"
         xlink:href="#glyph0-1" />
      <use
         id="use441"
         x="224.2"
         y="140.7"
         width="595"
         height="842"
         xlink:href="#glyph0-1" />
      <use
         id="use443"
         x="229.60001"
         y="140.7"
         width="595"
         height="842"
         xlink:href="#glyph0-1" />
      <use
         id="use445"
         x="235"
         y="140.7"
         width="595"
         height="842"
         xlink:href="#glyph0-1" />
      <use
         id="use447"
         x="240.39999"
         y="140.7"
         width="595"
         height="842"
         xlink:href="#glyph0-1" />
      <use
         id="use449"
         x="245.8"
         y="140.7"
         width="595"
         height="842"
         xlink:href="#glyph0-1" />
      <use
         id="use451"
         x="251.2"
         y="140.7"
         width="595"
         height="842"
         xlink:href="#glyph0-1" />
      <use
         id="use453"
         x="256.60001"
         y="140.7"
         width="595"
         height="842"
         xlink:href="#glyph0-1" />
      <use
         id="use455"
         x="262"
         y="140.7"
         width="595"
         height="842"
         xlink:href="#glyph0-1" />
      <use
         id="use457"
         x="267.39999"
         y="140.7"
         width="595"
         height="842"
         xlink:href="#glyph0-1" />
    </g>
    <g
       id="g459"
       style="fill:#ff0000;fill-opacity:1">
      <use
         id="use461"
         x="272.79999"
         y="140.7"
         width="595"
         height="842"
         xlink:href="#glyph0-2" />
      <use
         id="use463"
         x="278.20001"
         y="140.7"
         width="595"
         height="842"
         xlink:href="#glyph0-11" />
      <use
         id="use465"
         x="283.60001"
         y="140.7"
         width="595"
         height="842"
         xlink:href="#glyph0-19" />
      <use
         id="use467"
         x="289"
         y="140.7"
         width="595"
         height="842"
         xlink:href="#glyph0-20" />
      <use
         id="use469"
         x="294.39999"
         y="140.7"
         width="595"
         height="842"
         xlink:href="#glyph0-11" />
      <use
         id="use471"
         x="299.79999"
         y="140.7"
         width="595"
         height="842"
         xlink:href="#glyph0-18" />
      <use
         id="use473"
         x="305.20001"
         y="140.7"
         width="595"
         height="842"
         xlink:href="#glyph0-14" />
      <use
         id="use475"
         x="310.60001"
         y="140.7"
         width="595"
         height="842"
         xlink:href="#glyph0-5" />
      <use
         id="use477"
         x="316"
         y="140.7"
         width="595"
         height="842"
         xlink:href="#glyph0-15" />
      <use
         id="use479"
         x="321.39999"
         y="140.7"
         width="595"
         height="842"
         xlink:href="#glyph0-6" />
    </g>
    <g
       id="g481"
       style="fill:#000000;fill-opacity:1">
      <use
         id="use483"
         x="56.799999"
         y="151.5"
         width="595"
         height="842"
         xlink:href="#glyph0-1" />
      <use
         id="use485"
         x="62.200001"
         y="151.5"
         width="595"
         height="842"
         xlink:href="#glyph0-1" />
      <use
         id="use487"
         x="67.599998"
         y="151.5"
         width="595"
         height="842"
         xlink:href="#glyph0-2" />
      <use
         id="use489"
         x="73"
         y="151.5"
         width="595"
         height="842"
         xlink:href="#glyph0-1" />
      <use
         id="use491"
         x="78.400002"
         y="151.5"
         width="595"
         height="842"
         xlink:href="#glyph0-1" />
      <use
         id="use493"
         x="83.800003"
         y="151.5"
         width="595"
         height="842"
         xlink:href="#glyph0-1" />
      <use
         id="use495"
         x="89.199997"
         y="151.5"
         width="595"
         height="842"
         xlink:href="#glyph0-1" />
      <use
         id="use497"
         x="94.599998"
         y="151.5"
         width="595"
         height="842"
         xlink:href="#glyph0-1" />
      <use
         id="use499"
         x="100"
         y="151.5"
         width="595"
         height="842"
         xlink:href="#glyph0-1" />
      <use
         id="use501"
         x="105.4"
         y="151.5"
         width="595"
         height="842"
         xlink:href="#glyph0-2" />
      <use
         id="use503"
         x="110.8"
         y="151.5"
         width="595"
         height="842"
         xlink:href="#glyph0-1" />
      <use
         id="use505"
         x="116.2"
         y="151.5"
         width="595"
         height="842"
         xlink:href="#glyph0-1" />
      <use
         id="use507"
         x="121.6"
         y="151.5"
         width="595"
         height="842"
         xlink:href="#glyph0-1" />
      <use
         id="use509"
         x="127"
         y="151.5"
         width="595"
         height="842"
         xlink:href="#glyph0-1" />
      <use
         id="use511"
         x="132.39999"
         y="151.5"
         width="595"
         height="842"
         xlink:href="#glyph0-1" />
      <use
         id="use513"
         x="137.8"
         y="151.5"
         width="595"
         height="842"
         xlink:href="#glyph0-1" />
      <use
         id="use515"
         x="143.2"
         y="151.5"
         width="595"
         height="842"
         xlink:href="#glyph0-1" />
      <use
         id="use517"
         x="148.60001"
         y="151.5"
         width="595"
         height="842"
         xlink:href="#glyph0-1" />
      <use
         id="use519"
         x="154"
         y="151.5"
         width="595"
         height="842"
         xlink:href="#glyph0-1" />
      <use
         id="use521"
         x="159.39999"
         y="151.5"
         width="595"
         height="842"
         xlink:href="#glyph0-1" />
      <use
         id="use523"
         x="164.8"
         y="151.5"
         width="595"
         height="842"
         xlink:href="#glyph0-8" />
      <use
         id="use525"
         x="170.2"
         y="151.5"
         width="595"
         height="842"
         xlink:href="#glyph0-7" />
    </g>
    <g
       id="g527"
       style="fill:#000000;fill-opacity:1">
      <use
         id="use529"
         x="180.991"
         y="151.5"
         width="595"
         height="842"
         xlink:href="#glyph0-1" />
      <use
         id="use531"
         x="186.39101"
         y="151.5"
         width="595"
         height="842"
         xlink:href="#glyph0-18" />
      <use
         id="use533"
         x="191.791"
         y="151.5"
         width="595"
         height="842"
         xlink:href="#glyph0-10" />
      <use
         id="use535"
         x="197.19099"
         y="151.5"
         width="595"
         height="842"
         xlink:href="#glyph0-11" />
      <use
         id="use537"
         x="202.591"
         y="151.5"
         width="595"
         height="842"
         xlink:href="#glyph0-18" />
      <use
         id="use539"
         x="207.991"
         y="151.5"
         width="595"
         height="842"
         xlink:href="#glyph0-4" />
      <use
         id="use541"
         x="213.39101"
         y="151.5"
         width="595"
         height="842"
         xlink:href="#glyph0-10" />
      <use
         id="use543"
         x="218.791"
         y="151.5"
         width="595"
         height="842"
         xlink:href="#glyph0-11" />
      <use
         id="use545"
         x="224.19099"
         y="151.5"
         width="595"
         height="842"
         xlink:href="#glyph0-10" />
      <use
         id="use547"
         x="229.591"
         y="151.5"
         width="595"
         height="842"
         xlink:href="#glyph0-12" />
      <use
         id="use549"
         x="234.991"
         y="151.5"
         width="595"
         height="842"
         xlink:href="#glyph0-11" />
      <use
         id="use551"
         x="240.39101"
         y="151.5"
         width="595"
         height="842"
         xlink:href="#glyph0-16" />
      <use
         id="use553"
         x="245.791"
         y="151.5"
         width="595"
         height="842"
         xlink:href="#glyph0-9" />
      <use
         id="use555"
         x="251.19099"
         y="151.5"
         width="595"
         height="842"
         xlink:href="#glyph0-21" />
      <use
         id="use557"
         x="256.591"
         y="151.5"
         width="595"
         height="842"
         xlink:href="#glyph0-1" />
    </g>
    <g
       id="g559"
       style="fill:#000000;fill-opacity:1">
      <use
         id="use561"
         x="175.60001"
         y="151.5"
         width="595"
         height="842"
         xlink:href="#glyph1-3" />
    </g>
    <g
       id="g563"
       style="fill:#ff0000;fill-opacity:1">
      <use
         id="use565"
         x="262"
         y="151.5"
         width="595"
         height="842"
         xlink:href="#glyph0-22" />
      <use
         id="use567"
         x="267.39999"
         y="151.5"
         width="595"
         height="842"
         xlink:href="#glyph0-7" />
      <use
         id="use569"
         x="272.79999"
         y="151.5"
         width="595"
         height="842"
         xlink:href="#glyph0-8" />
    </g>
    <g
       id="g571"
       style="fill:#000000;fill-opacity:1">
      <use
         id="use573"
         x="56.799999"
         y="162.3"
         width="595"
         height="842"
         xlink:href="#glyph0-1" />
      <use
         id="use575"
         x="62.200001"
         y="162.3"
         width="595"
         height="842"
         xlink:href="#glyph0-1" />
      <use
         id="use577"
         x="67.599998"
         y="162.3"
         width="595"
         height="842"
         xlink:href="#glyph0-2" />
      <use
         id="use579"
         x="73"
         y="162.3"
         width="595"
         height="842"
         xlink:href="#glyph0-1" />
      <use
         id="use581"
         x="78.400002"
         y="162.3"
         width="595"
         height="842"
         xlink:href="#glyph0-1" />
      <use
         id="use583"
         x="83.800003"
         y="162.3"
         width="595"
         height="842"
         xlink:href="#glyph0-1" />
      <use
         id="use585"
         x="89.199997"
         y="162.3"
         width="595"
         height="842"
         xlink:href="#glyph0-1" />
      <use
         id="use587"
         x="94.599998"
         y="162.3"
         width="595"
         height="842"
         xlink:href="#glyph0-1" />
      <use
         id="use589"
         x="100"
         y="162.3"
         width="595"
         height="842"
         xlink:href="#glyph0-1" />
      <use
         id="use591"
         x="105.4"
         y="162.3"
         width="595"
         height="842"
         xlink:href="#glyph0-2" />
      <use
         id="use593"
         x="110.8"
         y="162.3"
         width="595"
         height="842"
         xlink:href="#glyph0-1" />
      <use
         id="use595"
         x="116.2"
         y="162.3"
         width="595"
         height="842"
         xlink:href="#glyph0-1" />
      <use
         id="use597"
         x="121.6"
         y="162.3"
         width="595"
         height="842"
         xlink:href="#glyph0-1" />
      <use
         id="use599"
         x="127"
         y="162.3"
         width="595"
         height="842"
         xlink:href="#glyph0-1" />
      <use
         id="use601"
         x="132.39999"
         y="162.3"
         width="595"
         height="842"
         xlink:href="#glyph0-1" />
      <use
         id="use603"
         x="137.8"
         y="162.3"
         width="595"
         height="842"
         xlink:href="#glyph0-1" />
      <use
         id="use605"
         x="143.2"
         y="162.3"
         width="595"
         height="842"
         xlink:href="#glyph0-1" />
      <use
         id="use607"
         x="148.60001"
         y="162.3"
         width="595"
         height="842"
         xlink:href="#glyph0-1" />
      <use
         id="use609"
         x="154"
         y="162.3"
         width="595"
         height="842"
         xlink:href="#glyph0-1" />
      <use
         id="use611"
         x="159.39999"
         y="162.3"
         width="595"
         height="842"
         xlink:href="#glyph0-1" />
      <use
         id="use613"
         x="164.8"
         y="162.3"
         width="595"
         height="842"
         xlink:href="#glyph0-8" />
      <use
         id="use615"
         x="170.2"
         y="162.3"
         width="595"
         height="842"
         xlink:href="#glyph0-7" />
    </g>
    <g
       id="g617"
       style="fill:#000000;fill-opacity:1">
      <use
         id="use619"
         x="180.991"
         y="162.3"
         width="595"
         height="842"
         xlink:href="#glyph0-1" />
      <use
         id="use621"
         x="186.39101"
         y="162.3"
         width="595"
         height="842"
         xlink:href="#glyph0-18" />
      <use
         id="use623"
         x="191.791"
         y="162.3"
         width="595"
         height="842"
         xlink:href="#glyph0-10" />
      <use
         id="use625"
         x="197.19099"
         y="162.3"
         width="595"
         height="842"
         xlink:href="#glyph0-11" />
      <use
         id="use627"
         x="202.591"
         y="162.3"
         width="595"
         height="842"
         xlink:href="#glyph0-18" />
      <use
         id="use629"
         x="207.991"
         y="162.3"
         width="595"
         height="842"
         xlink:href="#glyph0-4" />
      <use
         id="use631"
         x="213.39101"
         y="162.3"
         width="595"
         height="842"
         xlink:href="#glyph0-10" />
      <use
         id="use633"
         x="218.791"
         y="162.3"
         width="595"
         height="842"
         xlink:href="#glyph0-11" />
      <use
         id="use635"
         x="224.19099"
         y="162.3"
         width="595"
         height="842"
         xlink:href="#glyph0-10" />
      <use
         id="use637"
         x="229.591"
         y="162.3"
         width="595"
         height="842"
         xlink:href="#glyph0-23" />
      <use
         id="use639"
         x="234.991"
         y="162.3"
         width="595"
         height="842"
         xlink:href="#glyph0-11" />
      <use
         id="use641"
         x="240.39101"
         y="162.3"
         width="595"
         height="842"
         xlink:href="#glyph0-16" />
      <use
         id="use643"
         x="245.791"
         y="162.3"
         width="595"
         height="842"
         xlink:href="#glyph0-10" />
      <use
         id="use645"
         x="251.19099"
         y="162.3"
         width="595"
         height="842"
         xlink:href="#glyph0-10" />
      <use
         id="use647"
         x="256.591"
         y="162.3"
         width="595"
         height="842"
         xlink:href="#glyph0-11" />
    </g>
    <g
       id="g649"
       style="fill:#000000;fill-opacity:1">
      <use
         id="use651"
         x="175.60001"
         y="162.3"
         width="595"
         height="842"
         xlink:href="#glyph1-3" />
    </g>
    <g
       id="g653"
       style="fill:#000000;fill-opacity:1">
      <use
         id="use655"
         x="56.799999"
         y="173.10001"
         width="595"
         height="842"
         xlink:href="#glyph0-1" />
      <use
         id="use657"
         x="62.200001"
         y="173.10001"
         width="595"
         height="842"
         xlink:href="#glyph0-1" />
      <use
         id="use659"
         x="67.599998"
         y="173.10001"
         width="595"
         height="842"
         xlink:href="#glyph0-2" />
      <use
         id="use661"
         x="73"
         y="173.10001"
         width="595"
         height="842"
         xlink:href="#glyph0-1" />
      <use
         id="use663"
         x="78.400002"
         y="173.10001"
         width="595"
         height="842"
         xlink:href="#glyph0-1" />
      <use
         id="use665"
         x="83.800003"
         y="173.10001"
         width="595"
         height="842"
         xlink:href="#glyph0-1" />
      <use
         id="use667"
         x="89.199997"
         y="173.10001"
         width="595"
         height="842"
         xlink:href="#glyph0-1" />
      <use
         id="use669"
         x="94.599998"
         y="173.10001"
         width="595"
         height="842"
         xlink:href="#glyph0-1" />
      <use
         id="use671"
         x="100"
         y="173.10001"
         width="595"
         height="842"
         xlink:href="#glyph0-1" />
      <use
         id="use673"
         x="105.4"
         y="173.10001"
         width="595"
         height="842"
         xlink:href="#glyph0-2" />
      <use
         id="use675"
         x="110.8"
         y="173.10001"
         width="595"
         height="842"
         xlink:href="#glyph0-1" />
      <use
         id="use677"
         x="116.2"
         y="173.10001"
         width="595"
         height="842"
         xlink:href="#glyph0-1" />
      <use
         id="use679"
         x="121.6"
         y="173.10001"
         width="595"
         height="842"
         xlink:href="#glyph0-1" />
      <use
         id="use681"
         x="127"
         y="173.10001"
         width="595"
         height="842"
         xlink:href="#glyph0-1" />
      <use
         id="use683"
         x="132.39999"
         y="173.10001"
         width="595"
         height="842"
         xlink:href="#glyph0-1" />
      <use
         id="use685"
         x="137.8"
         y="173.10001"
         width="595"
         height="842"
         xlink:href="#glyph0-1" />
      <use
         id="use687"
         x="143.2"
         y="173.10001"
         width="595"
         height="842"
         xlink:href="#glyph0-1" />
      <use
         id="use689"
         x="148.60001"
         y="173.10001"
         width="595"
         height="842"
         xlink:href="#glyph0-1" />
      <use
         id="use691"
         x="154"
         y="173.10001"
         width="595"
         height="842"
         xlink:href="#glyph0-1" />
      <use
         id="use693"
         x="159.39999"
         y="173.10001"
         width="595"
         height="842"
         xlink:href="#glyph0-1" />
      <use
         id="use695"
         x="164.8"
         y="173.10001"
         width="595"
         height="842"
         xlink:href="#glyph0-8" />
      <use
         id="use697"
         x="170.2"
         y="173.10001"
         width="595"
         height="842"
         xlink:href="#glyph0-7" />
    </g>
    <g
       id="g699"
       style="fill:#000000;fill-opacity:1">
      <use
         id="use701"
         x="180.991"
         y="173.10001"
         width="595"
         height="842"
         xlink:href="#glyph0-1" />
      <use
         id="use703"
         x="186.39101"
         y="173.10001"
         width="595"
         height="842"
         xlink:href="#glyph0-18" />
      <use
         id="use705"
         x="191.791"
         y="173.10001"
         width="595"
         height="842"
         xlink:href="#glyph0-10" />
      <use
         id="use707"
         x="197.19099"
         y="173.10001"
         width="595"
         height="842"
         xlink:href="#glyph0-11" />
      <use
         id="use709"
         x="202.591"
         y="173.10001"
         width="595"
         height="842"
         xlink:href="#glyph0-18" />
      <use
         id="use711"
         x="207.991"
         y="173.10001"
         width="595"
         height="842"
         xlink:href="#glyph0-4" />
      <use
         id="use713"
         x="213.39101"
         y="173.10001"
         width="595"
         height="842"
         xlink:href="#glyph0-10" />
      <use
         id="use715"
         x="218.791"
         y="173.10001"
         width="595"
         height="842"
         xlink:href="#glyph0-11" />
      <use
         id="use717"
         x="224.19099"
         y="173.10001"
         width="595"
         height="842"
         xlink:href="#glyph0-10" />
      <use
         id="use719"
         x="229.591"
         y="173.10001"
         width="595"
         height="842"
         xlink:href="#glyph0-17" />
      <use
         id="use721"
         x="234.991"
         y="173.10001"
         width="595"
         height="842"
         xlink:href="#glyph0-15" />
      <use
         id="use723"
         x="240.39101"
         y="173.10001"
         width="595"
         height="842"
         xlink:href="#glyph0-11" />
      <use
         id="use725"
         x="245.791"
         y="173.10001"
         width="595"
         height="842"
         xlink:href="#glyph0-13" />
      <use
         id="use727"
         x="251.19099"
         y="173.10001"
         width="595"
         height="842"
         xlink:href="#glyph0-13" />
      <use
         id="use729"
         x="256.591"
         y="173.10001"
         width="595"
         height="842"
         xlink:href="#glyph0-11" />
    </g>
    <g
       id="g731"
       style="fill:#000000;fill-opacity:1">
      <use
         id="use733"
         x="175.60001"
         y="173.10001"
         width="595"
         height="842"
         xlink:href="#glyph1-3" />
    </g>
    <g
       id="g735"
       style="fill:#000000;fill-opacity:1">
      <use
         id="use737"
         x="56.799999"
         y="183.89999"
         width="595"
         height="842"
         xlink:href="#glyph0-1" />
      <use
         id="use739"
         x="62.200001"
         y="183.89999"
         width="595"
         height="842"
         xlink:href="#glyph0-1" />
      <use
         id="use741"
         x="67.599998"
         y="183.89999"
         width="595"
         height="842"
         xlink:href="#glyph0-2" />
      <use
         id="use743"
         x="73"
         y="183.89999"
         width="595"
         height="842"
         xlink:href="#glyph0-1" />
      <use
         id="use745"
         x="78.400002"
         y="183.89999"
         width="595"
         height="842"
         xlink:href="#glyph0-1" />
      <use
         id="use747"
         x="83.800003"
         y="183.89999"
         width="595"
         height="842"
         xlink:href="#glyph0-1" />
      <use
         id="use749"
         x="89.199997"
         y="183.89999"
         width="595"
         height="842"
         xlink:href="#glyph0-1" />
      <use
         id="use751"
         x="94.599998"
         y="183.89999"
         width="595"
         height="842"
         xlink:href="#glyph0-1" />
      <use
         id="use753"
         x="100"
         y="183.89999"
         width="595"
         height="842"
         xlink:href="#glyph0-1" />
      <use
         id="use755"
         x="105.4"
         y="183.89999"
         width="595"
         height="842"
         xlink:href="#glyph0-2" />
    </g>
    <g
       id="g757"
       style="fill:#000000;fill-opacity:1">
      <use
         id="use759"
         x="56.799999"
         y="194.7"
         width="595"
         height="842"
         xlink:href="#glyph0-1" />
      <use
         id="use761"
         x="62.200001"
         y="194.7"
         width="595"
         height="842"
         xlink:href="#glyph0-1" />
      <use
         id="use763"
         x="67.599998"
         y="194.7"
         width="595"
         height="842"
         xlink:href="#glyph0-2" />
      <use
         id="use765"
         x="73"
         y="194.7"
         width="595"
         height="842"
         xlink:href="#glyph0-1" />
      <use
         id="use767"
         x="78.400002"
         y="194.7"
         width="595"
         height="842"
         xlink:href="#glyph0-1" />
      <use
         id="use769"
         x="83.800003"
         y="194.7"
         width="595"
         height="842"
         xlink:href="#glyph0-1" />
      <use
         id="use771"
         x="89.199997"
         y="194.7"
         width="595"
         height="842"
         xlink:href="#glyph0-1" />
      <use
         id="use773"
         x="94.599998"
         y="194.7"
         width="595"
         height="842"
         xlink:href="#glyph0-1" />
      <use
         id="use775"
         x="100"
         y="194.7"
         width="595"
         height="842"
         xlink:href="#glyph0-1" />
      <use
         id="use777"
         x="105.4"
         y="194.7"
         width="595"
         height="842"
         xlink:href="#glyph0-8" />
      <use
         id="use779"
         x="110.8"
         y="194.7"
         width="595"
         height="842"
         xlink:href="#glyph0-7" />
      <use
         id="use781"
         x="116.2"
         y="194.7"
         width="595"
         height="842"
         xlink:href="#glyph0-7" />
    </g>
    <g
       id="g783"
       style="fill:#000000;fill-opacity:1">
      <use
         id="use785"
         x="126.991"
         y="194.7"
         width="595"
         height="842"
         xlink:href="#glyph0-1" />
      <use
         id="use787"
         x="132.39101"
         y="194.7"
         width="595"
         height="842"
         xlink:href="#glyph0-20" />
      <use
         id="use789"
         x="137.791"
         y="194.7"
         width="595"
         height="842"
         xlink:href="#glyph0-16" />
      <use
         id="use791"
         x="143.19099"
         y="194.7"
         width="595"
         height="842"
         xlink:href="#glyph0-5" />
      <use
         id="use793"
         x="148.591"
         y="194.7"
         width="595"
         height="842"
         xlink:href="#glyph0-21" />
      <use
         id="use795"
         x="153.991"
         y="194.7"
         width="595"
         height="842"
         xlink:href="#glyph0-5" />
      <use
         id="use797"
         x="159.39101"
         y="194.7"
         width="595"
         height="842"
         xlink:href="#glyph0-6" />
      <use
         id="use799"
         x="164.791"
         y="194.7"
         width="595"
         height="842"
         xlink:href="#glyph0-11" />
      <use
         id="use801"
         x="170.19099"
         y="194.7"
         width="595"
         height="842"
         xlink:href="#glyph0-10" />
      <use
         id="use803"
         x="175.591"
         y="194.7"
         width="595"
         height="842"
         xlink:href="#glyph0-12" />
      <use
         id="use805"
         x="180.991"
         y="194.7"
         width="595"
         height="842"
         xlink:href="#glyph0-11" />
      <use
         id="use807"
         x="186.39101"
         y="194.7"
         width="595"
         height="842"
         xlink:href="#glyph0-16" />
      <use
         id="use809"
         x="191.791"
         y="194.7"
         width="595"
         height="842"
         xlink:href="#glyph0-9" />
      <use
         id="use811"
         x="197.19099"
         y="194.7"
         width="595"
         height="842"
         xlink:href="#glyph0-21" />
    </g>
    <g
       id="g813"
       style="fill:#000000;fill-opacity:1">
      <use
         id="use815"
         x="121.6"
         y="194.7"
         width="595"
         height="842"
         xlink:href="#glyph1-3" />
    </g>
    <g
       id="g817"
       style="fill:#000000;fill-opacity:1">
      <use
         id="use819"
         x="56.799999"
         y="205.5"
         width="595"
         height="842"
         xlink:href="#glyph0-1" />
      <use
         id="use821"
         x="62.200001"
         y="205.5"
         width="595"
         height="842"
         xlink:href="#glyph0-1" />
      <use
         id="use823"
         x="67.599998"
         y="205.5"
         width="595"
         height="842"
         xlink:href="#glyph0-2" />
      <use
         id="use825"
         x="73"
         y="205.5"
         width="595"
         height="842"
         xlink:href="#glyph0-1" />
      <use
         id="use827"
         x="78.400002"
         y="205.5"
         width="595"
         height="842"
         xlink:href="#glyph0-1" />
      <use
         id="use829"
         x="83.800003"
         y="205.5"
         width="595"
         height="842"
         xlink:href="#glyph0-1" />
      <use
         id="use831"
         x="89.199997"
         y="205.5"
         width="595"
         height="842"
         xlink:href="#glyph0-1" />
      <use
         id="use833"
         x="94.599998"
         y="205.5"
         width="595"
         height="842"
         xlink:href="#glyph0-1" />
      <use
         id="use835"
         x="100"
         y="205.5"
         width="595"
         height="842"
         xlink:href="#glyph0-1" />
      <use
         id="use837"
         x="105.4"
         y="205.5"
         width="595"
         height="842"
         xlink:href="#glyph0-8" />
      <use
         id="use839"
         x="110.8"
         y="205.5"
         width="595"
         height="842"
         xlink:href="#glyph0-7" />
      <use
         id="use841"
         x="116.2"
         y="205.5"
         width="595"
         height="842"
         xlink:href="#glyph0-7" />
    </g>
    <g
       id="g843"
       style="fill:#000000;fill-opacity:1">
      <use
         id="use845"
         x="126.991"
         y="205.5"
         width="595"
         height="842"
         xlink:href="#glyph0-1" />
      <use
         id="use847"
         x="132.39101"
         y="205.5"
         width="595"
         height="842"
         xlink:href="#glyph0-14" />
      <use
         id="use849"
         x="137.791"
         y="205.5"
         width="595"
         height="842"
         xlink:href="#glyph0-15" />
      <use
         id="use851"
         x="143.19099"
         y="205.5"
         width="595"
         height="842"
         xlink:href="#glyph0-16" />
      <use
         id="use853"
         x="148.591"
         y="205.5"
         width="595"
         height="842"
         xlink:href="#glyph0-14" />
      <use
         id="use855"
         x="153.991"
         y="205.5"
         width="595"
         height="842"
         xlink:href="#glyph0-24" />
      <use
         id="use857"
         x="159.39101"
         y="205.5"
         width="595"
         height="842"
         xlink:href="#glyph0-11" />
      <use
         id="use859"
         x="164.791"
         y="205.5"
         width="595"
         height="842"
         xlink:href="#glyph0-14" />
      <use
         id="use861"
         x="170.19099"
         y="205.5"
         width="595"
         height="842"
         xlink:href="#glyph0-14" />
      <use
         id="use863"
         x="175.591"
         y="205.5"
         width="595"
         height="842"
         xlink:href="#glyph0-15" />
      <use
         id="use865"
         x="180.991"
         y="205.5"
         width="595"
         height="842"
         xlink:href="#glyph0-25" />
      <use
         id="use867"
         x="186.39101"
         y="205.5"
         width="595"
         height="842"
         xlink:href="#glyph0-11" />
      <use
         id="use869"
         x="191.791"
         y="205.5"
         width="595"
         height="842"
         xlink:href="#glyph0-10" />
    </g>
    <g
       id="g871"
       style="fill:#000000;fill-opacity:1">
      <use
         id="use873"
         x="121.6"
         y="205.5"
         width="595"
         height="842"
         xlink:href="#glyph1-3" />
    </g>
    <g
       id="g875"
       style="fill:#000000;fill-opacity:1">
      <use
         id="use877"
         x="56.799999"
         y="216.3"
         width="595"
         height="842"
         xlink:href="#glyph0-1" />
      <use
         id="use879"
         x="62.200001"
         y="216.3"
         width="595"
         height="842"
         xlink:href="#glyph0-1" />
      <use
         id="use881"
         x="67.599998"
         y="216.3"
         width="595"
         height="842"
         xlink:href="#glyph0-2" />
    </g>
    <g
       id="g883"
       style="fill:#000000;fill-opacity:1">
      <use
         id="use885"
         x="56.799999"
         y="227.10001"
         width="595"
         height="842"
         xlink:href="#glyph0-1" />
      <use
         id="use887"
         x="62.200001"
         y="227.10001"
         width="595"
         height="842"
         xlink:href="#glyph0-1" />
      <use
         id="use889"
         x="67.599998"
         y="227.10001"
         width="595"
         height="842"
         xlink:href="#glyph0-8" />
      <use
         id="use891"
         x="73"
         y="227.10001"
         width="595"
         height="842"
         xlink:href="#glyph0-7" />
      <use
         id="use893"
         x="78.400002"
         y="227.10001"
         width="595"
         height="842"
         xlink:href="#glyph0-7" />
    </g>
    <g
       id="g895"
       style="fill:#000000;fill-opacity:1">
      <use
         id="use897"
         x="89.191002"
         y="227.10001"
         width="595"
         height="842"
         xlink:href="#glyph0-1" />
      <use
         id="use899"
         x="94.591003"
         y="227.10001"
         width="595"
         height="842"
         xlink:href="#glyph0-26" />
      <use
         id="use901"
         x="99.990997"
         y="227.10001"
         width="595"
         height="842"
         xlink:href="#glyph0-4" />
      <use
         id="use903"
         x="105.391"
         y="227.10001"
         width="595"
         height="842"
         xlink:href="#glyph0-6" />
      <use
         id="use905"
         x="110.791"
         y="227.10001"
         width="595"
         height="842"
         xlink:href="#glyph0-27" />
      <use
         id="use907"
         x="116.191"
         y="227.10001"
         width="595"
         height="842"
         xlink:href="#glyph0-11" />
      <use
         id="use909"
         x="121.591"
         y="227.10001"
         width="595"
         height="842"
         xlink:href="#glyph0-10" />
      <use
         id="use911"
         x="126.991"
         y="227.10001"
         width="595"
         height="842"
         xlink:href="#glyph0-12" />
      <use
         id="use913"
         x="132.39101"
         y="227.10001"
         width="595"
         height="842"
         xlink:href="#glyph0-3" />
      <use
         id="use915"
         x="137.791"
         y="227.10001"
         width="595"
         height="842"
         xlink:href="#glyph0-11" />
      <use
         id="use917"
         x="143.19099"
         y="227.10001"
         width="595"
         height="842"
         xlink:href="#glyph0-13" />
      <use
         id="use919"
         x="148.591"
         y="227.10001"
         width="595"
         height="842"
         xlink:href="#glyph0-11" />
      <use
         id="use921"
         x="153.991"
         y="227.10001"
         width="595"
         height="842"
         xlink:href="#glyph0-14" />
      <use
         id="use923"
         x="159.39101"
         y="227.10001"
         width="595"
         height="842"
         xlink:href="#glyph0-14" />
      <use
         id="use925"
         x="164.791"
         y="227.10001"
         width="595"
         height="842"
         xlink:href="#glyph0-11" />
    </g>
    <g
       id="g927"
       style="fill:#000000;fill-opacity:1">
      <use
         id="use929"
         x="83.800003"
         y="227.10001"
         width="595"
         height="842"
         xlink:href="#glyph1-3" />
    </g>
  </g>
</svg>
